{
  "content": [
    {
      "id": 1,
      "breweryId": 812,
      "name": "Hocus Pocus",
      "categoryId": null,
      "styleId": 116,
      "abv": 4.5,
      "ibu": 0.0,
      "srm": 0.0,
      "upc": 0,
      "filepath": "",
      "descript": "Our take on a classic summer ale.  A toast to weeds, rays, and summer haze.  A light, crisp ale for mowing lawns, hitting lazy fly balls, and communing with nature, Hocus Pocus is offered up as a summer sacrifice to clodless days.\r\n\r\nIts malty sweetness finishes tart and crisp and is best apprediated with a wedge of orange.",
      "addUser": 0,
      "lastModified": null
    },
    {
      "id": 5915,
      "breweryId": 1,
      "name": "Lager Especial",
      "categoryId": 5,
      "styleId": 3,
      "abv": 5.2,
      "ibu": 15.0,
      "srm": 8.0,
      "upc": 123456789012,
      "filepath": "/images/beer1.jpg",
      "descript": "Una cerveza lager refrescante y suave.",
      "addUser": 1,
      "lastModified": "2024-11-11T14:30:00"
    },
    {
      "id": 3,
      "breweryId": 779,
      "name": "Widdershins Barleywine",
      "categoryId": null,
      "styleId": -1,
      "abv": 9.1,
      "ibu": 0.0,
      "srm": 0.0,
      "upc": 0,
      "filepath": "",
      "descript": "",
      "addUser": 0,
      "lastModified": null
    },
    {
      "id": 4,
      "breweryId": 287,
      "name": "Lucifer",
      "categoryId": null,
      "styleId": -1,
      "abv": 8.5,
      "ibu": 0.0,
      "srm": 0.0,
      "upc": 0,
      "filepath": "",
      "descript": "",
      "addUser": 0,
      "lastModified": null
    },
    {
      "id": 5,
      "breweryId": 1056,
      "name": "Bitter",
      "categoryId": null,
      "styleId": -1,
      "abv": 4.0,
      "ibu": 0.0,
      "srm": 0.0,
      "upc": 0,
      "filepath": "",
      "descript": "",
      "addUser": 0,
      "lastModified": null
    },
    {
      "id": 6,
      "breweryId": 1385,
      "name": "Winter Warmer",
      "categoryId": null,
      "styleId": 13,
      "abv": 5.2,
      "ibu": 0.0,
      "srm": 0.0,
      "upc": 0,
      "filepath": "",
      "descript": "",
      "addUser": 0,
      "lastModified": null
    },
    {
      "id": 8,
      "breweryId": 1099,
      "name": "Oatmeal Stout",
      "categoryId": null,
      "styleId": 42,
      "abv": 5.0,
      "ibu": 0.0,
      "srm": 0.0,
      "upc": 0,
      "filepath": "",
      "descript": "",
      "addUser": 0,
      "lastModified": null
    },
    {
      "id": 9,
      "breweryId": 501,
      "name": "Espresso Porter",
      "categoryId": null,
      "styleId": -1,
      "abv": 0.0,
      "ibu": 0.0,
      "srm": 0.0,
      "upc": 0,
      "filepath": "",
      "descript": "",
      "addUser": 0,
      "lastModified": null
    },
    {
      "id": 10,
      "breweryId": 1,
      "name": "Lager Especial",
      "categoryId": 5,
      "styleId": 3,
      "abv": 5.2,
      "ibu": 15.0,
      "srm": 8.0,
      "upc": 123456789012,
      "filepath": "/images/beer1.jpg",
      "descript": "Una cerveza lager refrescante y suave.",
      "addUser": 1,
      "lastModified": "2024-11-11T14:26:40.27829"
    },
    {
      "id": 11,
      "breweryId": 742,
      "name": "Hitachino Nest Real Ginger Brew",
      "categoryId": null,
      "styleId": -1,
      "abv": 7.0,
      "ibu": 0.0,
      "srm": 0.0,
      "upc": 0,
      "filepath": "",
      "descript": "",
      "addUser": 0,
      "lastModified": null
    },
    {
      "id": 12,
      "breweryId": 779,
      "name": "JuJu Ginger",
      "categoryId": null,
      "styleId": -1,
      "abv": 4.0,
      "ibu": 0.0,
      "srm": 0.0,
      "upc": 0,
      "filepath": "",
      "descript": "",
      "addUser": 0,
      "lastModified": null
    },
    {
      "id": 13,
      "breweryId": 545,
      "name": "The Kidd Lager",
      "categoryId": null,
      "styleId": 86,
      "abv": 0.0,
      "ibu": 0.0,
      "srm": 0.0,
      "upc": 0,
      "filepath": "",
      "descript": "",
      "addUser": 0,
      "lastModified": null
    },
    {
      "id": 14,
      "breweryId": 1099,
      "name": "Imperial Stout",
      "categoryId": null,
      "styleId": 42,
      "abv": 7.0,
      "ibu": 0.0,
      "srm": 0.0,
      "upc": 0,
      "filepath": "",
      "descript": "",
      "addUser": 0,
      "lastModified": null
    },
    {
      "id": 15,
      "breweryId": 1315,
      "name": "Oak-Aged Belgian Tripel",
      "categoryId": null,
      "styleId": -1,
      "abv": 9.0,
      "ibu": 0.0,
      "srm": 0.0,
      "upc": 0,
      "filepath": "",
      "descript": "",
      "addUser": 0,
      "lastModified": null
    },
    {
      "id": 16,
      "breweryId": 168,
      "name": "Ultrablonde",
      "categoryId": null,
      "styleId": -1,
      "abv": 8.0,
      "ibu": 0.0,
      "srm": 0.0,
      "upc": 0,
      "filepath": "",
      "descript": "",
      "addUser": 0,
      "lastModified": null
    },
    {
      "id": 17,
      "breweryId": 1023,
      "name": "Wiesen Edel Weisse",
      "categoryId": null,
      "styleId": 50,
      "abv": 6.2,
      "ibu": 0.0,
      "srm": 0.0,
      "upc": 0,
      "filepath": "",
      "descript": "",
      "addUser": 0,
      "lastModified": null
    },
    {
      "id": 18,
      "breweryId": 39,
      "name": "Old Foghorn 2001",
      "categoryId": null,
      "styleId": -1,
      "abv": 10.0,
      "ibu": 0.0,
      "srm": 0.0,
      "upc": 0,
      "filepath": "",
      "descript": "",
      "addUser": 0,
      "lastModified": null
    },
    {
      "id": 19,
      "breweryId": 196,
      "name": "Framboise",
      "categoryId": null,
      "styleId": -1,
      "abv": 6.0,
      "ibu": 0.0,
      "srm": 0.0,
      "upc": 0,
      "filepath": "",
      "descript": "",
      "addUser": 0,
      "lastModified": null
    },
    {
      "id": 20,
      "breweryId": 483,
      "name": "Cow Palace Scotch Ale 1998",
      "categoryId": null,
      "styleId": 15,
      "abv": 8.7,
      "ibu": 0.0,
      "srm": 0.0,
      "upc": 0,
      "filepath": "",
      "descript": "",
      "addUser": 0,
      "lastModified": null
    },
    {
      "id": 21,
      "breweryId": 1142,
      "name": "Bigfoot 2001",
      "categoryId": null,
      "styleId": -1,
      "abv": 9.6,
      "ibu": 0.0,
      "srm": 0.0,
      "upc": 0,
      "filepath": "",
      "descript": "",
      "addUser": 0,
      "lastModified": null
    }
  ],
  "pageable": {
    "pageNumber": 0,
    "pageSize": 20,
    "sort": {
      "unsorted": true,
      "sorted": false,
      "empty": true
    },
    "offset": 0,
    "unpaged": false,
    "paged": true
  },
  "totalPages": 296,
  "totalElements": 5902,
  "last": false,
  "first": true,
  "size": 20,
  "number": 0,
  "sort": {
    "unsorted": true,
    "sorted": false,
    "empty": true
  },
  "numberOfElements": 20,
  "empty": false
}